Heterogeneity & Demographic Analysis • heemod
…
Heterogeneity analysis is a way to explore how the results of a model can vary depending on the characteristics of individuals in a population, and demographic analysis estimates the average values of a model over an entire population.

In practice these two analyses naturally complement each other: heterogeneity analysis runs the model on multiple sets of parameters (reflecting differents characteristics found in the target population), and demographic analysis combines the results.

For this example we will use the result from the assessment of a new total hip replacement previously described in vignette("d-non-homogeneous", "heemod").

Population characteristics

The characteristics of the population are input from a table, with one column per parameter and one row per individual. Those may be for example the characteristics of the indiviuals included in the original trial data.

For this example we will use the characteristics of 100 individuals, with varying sex and age, specified in the data frame tab_indiv:

tab_indiv

## # A tibble: 100 × 2
##      age   sex
##    <dbl> <int>
##  1    54     1
##  2    53     0
##  3    53     0
##  4    60     0
##  5    68     1
##  6    58     1
##  7    57     1
##  8    54     0
##  9    63     1
## 10    70     0
## # ... with 90 more rows
…
Weighted results

Weights can be used in the analysis by including an optional column .weights in the new data to specify the respective weights of each strata in the target population.

tab_indiv_w

## # A tibble: 100 × 3
##      age   sex  .weights
##    <dbl> <int>     <dbl>
##  1    59     1 0.6470582
##  2    39     1 0.3964271
##  3    62     0 0.5825498
##  4    72     0 0.5153818
##  5    67     1 0.8588428
##  6    64     0 0.6039463
##  7    57     1 0.7664276
##  8    68     1 0.7843111
##  9    57     1 0.2808241
## 10    68     1 0.1543146
## # ... with 90 more rows
…
